{
"student":[{
    "roll_no":1001,
	"name":"ranjana",
	"class":"12th",
	"passed":true,
	 "marks":60
},
{
    "roll_no":1002,
	"name":"ranjana",
	"class":"12th",
	"passed":true,
	 "marks":60
},
{
    "roll_no":1003,
	"name":"ranjana",
	"class":"12th",
	"passed":true,
	 "marks":60
},
{
    "roll_no":1004,
	"name":"ranjana",
	"class":"12th",
	"passed":true,
	 "marks":60
}
]
}
